{
    "content": [
        {
            "authors": [
                {
                    "affiliation": [
                        "Institute of Physical Chemistry, Polish Academy of Sciences, Ul. Marcina Kasprzaka 44/52, 01-224 Warszawa, Poland"
                    ],
                    "name": "Kochman, Michał Andrzej"
                },
                {
                    "affiliation": [
                        "Division of Theoretical Chemistry, Department of Physics, Chemistry and Biology (IFM), Linköping University, 581 83 Linköping, Sweden"
                    ],
                    "name": "Durbeej, Bo"
                },
                {
                    "affiliation": [
                        "Institute of Physical Chemistry, Polish Academy of Sciences, Ul. Marcina Kasprzaka 44/52, 01-224 Warszawa, Poland"
                    ],
                    "name": "Kubas, Adam"
                }
            ],
            "coi_statement": "",
            "context": {},
            "copyright": "",
            "country": "",
            "doi": "10.1021/acs.jpca.1c06166",
            "entrez_date": "",
            "full_text_url": "https://doi.org/10.1021/acs.jpca.1c06166",
            "journal": "The journal of physical chemistry. A",
            "journal_ISSN": "1089-5639",
            "journal_issue": "39",
            "journal_volume": "125",
            "keywords": [],
            "language": "eng",
            "origin": "https://www.ebi.ac.uk/europepmc/webservices/rest/search?query=34550700&resultType=core&synonym=FALSE&pageSize=1&format=xml&fromSearchPost=false&cursorMark=",
            "pagination": "8635-8648",
            "provider": "europepmc",
            "provider_id": "34550700",
            "provider_url": "https://europepmc.org/article/MED/34550700",
            "publication_date": "2021-09-22",
            "publication_type": [
                "research-article",
                "Journal Article"
            ],
            "references": [],
            "title": "Simulation and Analysis of the Transient Absorption Spectrum of 4-(N,N-Dimethylamino)benzonitrile (DMABN) in Acetonitrile",
            "type": "publication",
            "version": "1.0"
        }
    ],
    "context": {
        "europepmc_source_create_publication_collection_document": {
            "articles": 1,
            "from_date": "",
            "full_text": false,
            "hours": -1,
            "query": "34550700",
            "to_date": ""
        }
    },
    "origin": null,
    "title": "",
    "type": "collection",
    "version": "1.0"
}